3.997684082031250000e+03 0.000000000000000000e+00 1.176728027343750000e+03
0.000000000000000000e+00 3.997684082031250000e+03 1.011728027343750000e+03
0.000000000000000000e+00 0.000000000000000000e+00 1.000000000000000000e+00
